<?xml version="1.0" encoding="UTF-8" standalone="no"?>
<svg
   xmlns="http://www.w3.org/2000/svg"
   xmlns:svg="http://www.w3.org/2000/svg"
   xmlns:xlink="http://www.w3.org/1999/xlink"
   version="1.0"
   width="12"
   height="12"
   id="svg2">
  <defs>
    <style type="text/css">
      <![CDATA[
      	.title {fill: #000000;fill-opacity:1;font-family:Arial;font-size:18pt;font-style:normal;font-weight:normal;text-anchor:start;}
        .normalText {fill: #000000;fill-opacity:1;font-family:Arial;font-size:11pt;font-style:normal;font-weight:normal;text-anchor:start;}
        .numLabelText {fill: #000000;fill-opacity:1;font-family:Arial;font-size:11pt;font-style:normal;font-weight:normal;text-anchor:middle;}
        .boldText {fill: #000000;fill-opacity:1;font-family:Arial;font-size:11pt;font-style:normal;font-weight:bold;text-anchor:start;}
        .centerLittleText {fill: #000000;fill-opacity:1;font-family:Arial;font-size:8pt;font-style:normal;font-weight:bold;text-anchor:middle;}
        .miniText {fill: #000000;fill-opacity:1;font-family:Arial;font-size:7pt;font-style:normal;font-weight:bold;text-anchor:start;}
        .centerText {fill: #000000;fill-opacity:1;font-family:Arial;font-size:11pt;font-style:normal;font-weight:normal;text-anchor:middle;}
        .linkText {fill:#0000ff;}
        .generatedInformation {fill:#000000;fill-opacity:1;font-family:Arial;font-size:6pt;font-style:normal;font-weight:normal;text-anchor:end;}
        .colorWhite{fill:#ffffff;}
        .colorBlack{fill:#000000;} 
        .colorGray{fill:#d3cfd1;}
        .colorBeige{fill:#e8e6d3;}
        .colorPurpel{fill:#a9218e;}
        .strokeOn{stroke-width:1;}
        .strokeOff{stroke-width:0;}
        .strokeBlack{stroke:#000000;} 
        .strokePurpel{stroke:#a9218e;} 
        .sizeLittle{font-size:3pt;}
        .anchorMiddle{text-anchor:middle;}
        .anchorEnd{text-anchor:end;}
        .solidLine{stroke:#000000;stroke-dasharray:none;stroke-width:1;} 
        .greyLine{stroke:#C0C0C0;stroke-dasharray:none;stroke-width:1;} 
        .dashedLine{stroke:#000000;stroke-dasharray:1,2;stroke-width:1;}
        .longDashedLine{stroke:#000000;stroke-dasharray:15,5;stroke-width:1;}
        .legendHeaderText {fill:#000000;fill-opacity:1;font-family:Arial;font-size:11pt;font-style:normal;font-weight:normal;text-anchor:middle;}
        .legendContentText {fill:#000000;fill-opacity:1;font-family:Arial;font-size:11pt;font-style:normal;font-weight:normal;text-anchor:start;}
        .legendHeaderStyle {fill:#e6e6e6;stroke-width:1;stroke:#000000;}
        .legendContentStyle{fill:#ffffff;stroke:#000000;}
        .colorFieldBaseStyle {fill:#ffffff;stroke:#000000;stroke-width:1;}
				.fillTransparentStyle {fill-opacity:0;}
      ]]>
    </style>
  </defs>
  <g id="ContainerRoot">
    <g id="transformNode" owidth="200" oheight="200" ox="0" oy="0">
    <g id="shapeProperties" class="fillTransparentStyle strokeOff">
    </g>
      <text id="textProperties" x="0" y="0">
        <tspan id="textField" x="0" y="0">
        </tspan>
      </text>
    </g>
  </g>
  <g id="TitleRoot">
    <g id="transformNode" owidth="200" oheight="40" ox="0" oy="0">
    <g id="shapeProperties" class="colorWhite strokeBlack">
    </g>
      <text id="textProperties" x="0" y="0">
        <tspan id="textField" x="0" y="0">
        </tspan>
      </text>
    </g>
  </g>
  <g id="Logo-UpperRightCornerRoot">
   <g id="transformNode" owidth="40" oheight="40" ox="0" oy="0">
	<path id="shapeProperties" d="M 0,0 L 40,0 L 40,40 L 32,40 L 32,8 L 0,8 z" style="fill:#008BD0;stroke:#000000;stroke-width:0" />
   </g>
  </g>

 <g id="Logo-LowerLeftCornerRoot">
   <g id="transformNode" owidth="40" oheight="40" ox="0" oy="0"> 
   	<path id="shapeProperties" d="M 0,0 L 0,40 L 40,40 L 40,32 L 8,32 L 8,0 z" style="fill:#000000;stroke:#000000;stroke-width:0" />
   </g>
 </g>
  
 <g id="ColorLegendFieldRoot">
  <g id="transformNode" owidth="12" oheight="12" ox="0" oy="0">
	<rect id="shapeProperties" class="colorSampleBaseStyle" x="0" y="0" width="12" height="12"  style="fill:#ffffff;" />
	<text id="textProperties" x="0" y="0" style="font-size:3pt;fill:#000000;text-anchor:middle" >
	</text>
  </g>
</g>
<g id="LegendBoxRoot">
  <g id="transformNode" owidth="240" oheight="52" ox="0" oy="0">
	<path id="shapeProperties" d="M 0,0 L 240,0 L 240,52 L 0,52 z" style="fill:#ffffff;stroke-width:1" />
	<text x="40" y="30" id="textProperties" style="font-size:3pt;fill:#000000">
	  <tspan id="textField" x="60" y="30">
	  </tspan>
	</text>	
  </g>
</g>
<g id="LabelLargeRoot">
  <g id="transformNode" owidth="1" oheight="30" ox="0" oy="0">
    <g id="shapeProperties"/>
    <text id="textProperties" x="0" y="0">
      <tspan id="textField" x="0" y="0">
      </tspan>
    </text>
  </g>
</g>
<g id="ImageRoot">
  <g id="transformNode" owidth="1" oheight="1" ox="0" oy="0">
  	<g id="shapeProperties"/>
  	<image id="imageField" />
  </g>
</g>  
</svg>